{
  "districts": [
    {
      "value": 1,
      "text": "Хабаровский"
    },
    {
      "value": 2,
      "text": "Хабаровский1"
    },
    {
      "value": 3,
      "text": "Хабаровский2"
    },
    {
      "value": 4,
      "text": "Хабаровский3"
    },
    {
      "value": 5,
      "text": "Хабаровский4"
    },
    {
      "value": 6,
      "text": "Речной"
    },
    {
      "value": 7,
      "text": "Речной1"
    },
    {
      "value": 8,
      "text": "Железнодорожный"
    },
    {
      "value": 9,
      "text": "Железнодорожный1"
    }]
}